<?xml version="1.0" encoding="UTF-8" standalone="no"?>
<!-- Created with Inkscape (http://www.inkscape.org/) -->

<svg
   width="210mm"
   height="297mm"
   viewBox="0 0 210 297"
   version="1.1"
   id="svg5"
   sodipodi:docname="ergonomic.svg"
   inkscape:version="1.2.2 (b0a8486541, 2022-12-01)"
   xmlns:inkscape="http://www.inkscape.org/namespaces/inkscape"
   xmlns:sodipodi="http://sodipodi.sourceforge.net/DTD/sodipodi-0.dtd"
   xmlns:xlink="http://www.w3.org/1999/xlink"
   xmlns="http://www.w3.org/2000/svg"
   xmlns:svg="http://www.w3.org/2000/svg">
  <sodipodi:namedview
     id="namedview7"
     pagecolor="#ffffff"
     bordercolor="#ffffff"
     borderopacity="1"
     inkscape:showpageshadow="0"
     inkscape:pageopacity="1"
     inkscape:pagecheckerboard="1"
     inkscape:deskcolor="#505050"
     inkscape:document-units="mm"
     showgrid="false"
     showguides="true"
     inkscape:zoom="1"
     inkscape:cx="279"
     inkscape:cy="576"
     inkscape:window-width="1920"
     inkscape:window-height="1011"
     inkscape:window-x="0"
     inkscape:window-y="0"
     inkscape:window-maximized="1"
     inkscape:current-layer="layer1">
    <sodipodi:guide
       position="42.236829,212.82006"
       orientation="1,0"
       id="guide25471"
       inkscape:locked="false" />
    <sodipodi:guide
       position="108.99142,260.57736"
       orientation="0,-1"
       id="guide25473"
       inkscape:locked="false" />
    <sodipodi:guide
       position="99.466421,132.56141"
       orientation="0,-1"
       id="guide293"
       inkscape:locked="false" />
    <sodipodi:guide
       position="99.334129,142.2187"
       orientation="0,-1"
       id="guide295"
       inkscape:locked="false" />
    <sodipodi:guide
       position="107.08397,137.39006"
       orientation="0,-1"
       id="guide297"
       inkscape:locked="false" />
    <sodipodi:guide
       position="89.941417,251.05235"
       orientation="0,-1"
       id="guide299"
       inkscape:locked="false" />
    <sodipodi:guide
       position="189.03653,255.94075"
       orientation="0,-1"
       id="guide301"
       inkscape:locked="false" />
    <sodipodi:guide
       position="99.466421,103.9864"
       orientation="0,-1"
       id="guide5912"
       inkscape:locked="false" />
    <sodipodi:guide
       position="98.941417,222.47734"
       orientation="0,-1"
       id="guide5916"
       inkscape:locked="false" />
    <sodipodi:guide
       position="82.973065,64.407035"
       orientation="-0.98480775,-0.17364817"
       id="guide8959"
       inkscape:locked="false" />
    <sodipodi:guide
       position="100.29658,75.447645"
       orientation="-0.9961947,-0.087155753"
       id="guide6678"
       inkscape:locked="false" />
    <sodipodi:guide
       position="116.4525,61.219179"
       orientation="-0.99619469,0.08715581"
       id="guide6734"
       inkscape:locked="false" />
    <sodipodi:guide
       position="108.99142,142.2187"
       orientation="1,0"
       id="guide6885"
       inkscape:locked="false" />
    <sodipodi:guide
       position="118.20073,81.201554"
       orientation="0.087155845,0.99619469"
       id="guide6900"
       inkscape:locked="false" />
    <sodipodi:guide
       position="158.64567,106.34088"
       orientation="0.99619505,-0.087151768"
       id="guide6963"
       inkscape:locked="false" />
    <sodipodi:guide
       position="-72.388346,167.26425"
       orientation="1,0"
       id="guide377"
       inkscape:locked="false" />
    <sodipodi:guide
       position="149.98708,116.65979"
       orientation="0.086987818,0.99620938"
       id="guide456"
       inkscape:locked="false" />
  </sodipodi:namedview>
  <defs
     id="defs2" />
  <g
     inkscape:label="Layer 1 copy"
     inkscape:groupmode="layer"
     id="g8678"
     style="display:inline"
     transform="translate(0,118.49094)">
    <g
       id="g8636"
       transform="translate(40.80158,-22.724981)">
      <rect
         style="fill:none;stroke:#800080;stroke-width:0.264583;-inkscape-stroke:none;stop-color:#000000"
         id="rect8624"
         width="19.049999"
         height="19.049999"
         x="58.664841"
         y="78.197639"
         rx="0"
         ry="0" />
      <rect
         style="fill:none;stroke:#800080;stroke-width:0.264583;-inkscape-stroke:none;stop-color:#000000"
         id="rect8626"
         width="19.049999"
         height="19.049999"
         x="58.664841"
         y="59.147633"
         rx="0"
         ry="0" />
      <rect
         style="fill:none;stroke:#800080;stroke-width:0.264583;-inkscape-stroke:none;stop-color:#000000"
         id="rect8628"
         width="19.049999"
         height="19.049999"
         x="58.664841"
         y="97.247643"
         rx="0"
         ry="0" />
      <rect
         style="fill:none;stroke:#000000;stroke-width:0.264583;-inkscape-stroke:none;stop-color:#000000"
         id="rect8630"
         width="18"
         height="18"
         x="59.189842"
         y="59.67263"
         rx="2"
         ry="2" />
      <rect
         style="fill:none;stroke:#000000;stroke-width:0.264583;-inkscape-stroke:none;stop-color:#000000"
         id="rect8632"
         width="18"
         height="18"
         x="59.189842"
         y="97.772644"
         rx="2"
         ry="2" />
      <rect
         style="fill:none;stroke:#000000;stroke-width:0.264583;-inkscape-stroke:none;stop-color:#000000"
         id="rect8634"
         width="18"
         height="18"
         x="59.189842"
         y="78.722641"
         rx="2"
         ry="2" />
    </g>
    <use
       x="0"
       y="0"
       xlink:href="#g497"
       id="use8638"
       transform="rotate(-5,207.80414,307.41681)"
       inkscape:transform-center-x="11.149075"
       inkscape:transform-center-y="-18.147353" />
    <circle
       style="display:inline;opacity:1;fill:none;stroke:#d45500;stroke-width:0.181689;-inkscape-stroke:none;stop-color:#000000"
       id="circle8640"
       cx="-51.321484"
       cy="58.239376"
       r="15.909155"
       transform="matrix(-0.9961947,0.08715574,0.08715574,0.9961947,0,0)"
       inkscape:transform-center-x="44.802477"
       inkscape:transform-center-y="-37.520289" />
    <use
       x="0"
       y="0"
       xlink:href="#use25065"
       id="use8642"
       transform="rotate(5,165.61674,532.90417)"
       inkscape:transform-center-x="-11.443896"
       inkscape:transform-center-y="-23.035047" />
    <g
       id="g8652"
       transform="rotate(5,405.3873,1011.5183)"
       inkscape:transform-center-x="-30.420853"
       inkscape:transform-center-y="-21.368429">
      <rect
         style="fill:none;stroke:#800080;stroke-width:0.264583;-inkscape-stroke:none;stop-color:#000000"
         id="rect8644"
         width="19.049999"
         height="19.049999"
         x="58.664841"
         y="78.197639"
         rx="0"
         ry="0" />
      <rect
         style="fill:none;stroke:#800080;stroke-width:0.264583;-inkscape-stroke:none;stop-color:#000000"
         id="rect8646"
         width="19.049999"
         height="19.049999"
         x="58.664841"
         y="97.247643"
         rx="0"
         ry="0" />
      <rect
         style="fill:none;stroke:#000000;stroke-width:0.264583;-inkscape-stroke:none;stop-color:#000000"
         id="rect8648"
         width="18"
         height="18"
         x="59.189842"
         y="97.772644"
         rx="2"
         ry="2" />
      <rect
         style="fill:none;stroke:#000000;stroke-width:0.264583;-inkscape-stroke:none;stop-color:#000000"
         id="rect8650"
         width="18"
         height="18"
         x="59.189842"
         y="78.722641"
         rx="2"
         ry="2" />
    </g>
    <g
       id="g8658"
       transform="rotate(-175.00036,127.1967,191.68002)"
       inkscape:transform-center-x="-27.5154"
       inkscape:transform-center-y="11.842206"
       style="display:inline">
      <rect
         style="fill:none;stroke:#800080;stroke-width:0.264583;-inkscape-stroke:none;stop-color:#000000"
         id="rect8654"
         width="19.049995"
         height="28.574982"
         x="106.28289"
         y="265.853"
         rx="0"
         ry="0" />
      <rect
         style="fill:none;stroke:#000000;stroke-width:0.264583;-inkscape-stroke:none;stop-color:#000000"
         id="rect8656"
         width="18"
         height="27.525024"
         x="106.80789"
         y="266.37799"
         rx="2"
         ry="2" />
    </g>
    <use
       x="0"
       y="0"
       xlink:href="#g25083"
       id="use8668"
       transform="rotate(-10,243.17114,524.1817)"
       inkscape:transform-center-x="11.034296"
       inkscape:transform-center-y="-7.726294" />
    <g
       id="g8674"
       transform="rotate(5,-348.56964,760.02567)"
       inkscape:transform-center-x="-8.1227057"
       inkscape:transform-center-y="14.926335"
       style="opacity:0.5">
      <rect
         style="fill:none;stroke:#800080;stroke-width:0.264583;-inkscape-stroke:none;stop-color:#000000"
         id="rect8670"
         width="19.049999"
         height="19.049999"
         x="58.664841"
         y="59.147633"
         rx="0"
         ry="0" />
      <rect
         style="fill:none;stroke:#000000;stroke-width:0.264583;-inkscape-stroke:none;stop-color:#000000"
         id="rect8672"
         width="18"
         height="18"
         x="59.189842"
         y="59.67263"
         rx="2"
         ry="2" />
    </g>
    <text
       xml:space="preserve"
       style="font-size:2.82222px;line-height:1.25;font-family:sans-serif;stroke-width:0.264582"
       x="87.939079"
       y="40.023212"
       id="text8742"><tspan
         sodipodi:role="line"
         id="tspan8740"
         style="font-size:2.82222px;stroke-width:0.264582"
         x="87.939079"
         y="40.023212">5° tilt</tspan></text>
    <g
       id="g6883"
       transform="rotate(170,91.162813,183.17993)"
       inkscape:transform-center-x="6.8993025"
       inkscape:transform-center-y="15.72444"
       style="display:inline;opacity:1">
      <rect
         style="fill:none;stroke:#800080;stroke-width:0.264583;-inkscape-stroke:none;stop-color:#000000"
         id="rect6879"
         width="19.049995"
         height="28.574982"
         x="106.28289"
         y="265.853"
         rx="0"
         ry="0" />
      <rect
         style="fill:none;stroke:#000000;stroke-width:0.264583;-inkscape-stroke:none;stop-color:#000000"
         id="rect6881"
         width="18"
         height="27.525024"
         x="106.80789"
         y="266.37799"
         rx="2"
         ry="2" />
    </g>
    <g
       id="g6898"
       transform="rotate(-175.00036,136.51394,196.85523)"
       inkscape:transform-center-x="-27.5154"
       inkscape:transform-center-y="11.842206"
       style="display:inline">
      <rect
         style="fill:none;stroke:#800080;stroke-width:0.264583;-inkscape-stroke:none;stop-color:#000000"
         id="rect6894"
         width="19.049995"
         height="28.574982"
         x="106.28289"
         y="265.853"
         rx="0"
         ry="0" />
      <rect
         style="fill:none;stroke:#000000;stroke-width:0.264583;-inkscape-stroke:none;stop-color:#000000"
         id="rect6896"
         width="18"
         height="27.525024"
         x="106.80789"
         y="266.37799"
         rx="2"
         ry="2" />
    </g>
    <rect
       style="display:inline;fill:none;stroke:#d45500;stroke-width:0.2;-inkscape-stroke:none;stop-color:#000000"
       id="rect361"
       width="52.810001"
       height="20.780001"
       x="-98.85894"
       y="179.02036"
       inkscape:transform-center-x="-10.390168"
       inkscape:transform-center-y="26.40494"
       transform="rotate(-90.000369)" />
    <rect
       style="display:inline;fill:none;stroke:#d45500;stroke-width:0.2;-inkscape-stroke:none;stop-color:#000000"
       id="rect363"
       width="12"
       height="5"
       x="188.00314"
       y="101.67329"
       transform="rotate(0.0897144)"
       inkscape:transform-center-x="-14.819169"
       inkscape:transform-center-y="58.429147" />
    <text
       xml:space="preserve"
       style="font-size:2.35608px;line-height:1.25;font-family:sans-serif;display:inline;stroke-width:0.441765"
       x="180.16377"
       y="73.009552"
       id="text367"
       inkscape:transform-center-x="-10.390152"
       inkscape:transform-center-y="26.406153"
       transform="rotate(0.0863365)"><tspan
         sodipodi:role="line"
         id="tspan365"
         style="stroke-width:0.441765"
         x="180.16377"
         y="73.009552">STM32F401CCU6</tspan></text>
    <use
       x="0"
       y="0"
       xlink:href="#g8674"
       inkscape:transform-center-x="-8.1227057"
       inkscape:transform-center-y="14.926335"
       id="use607"
       transform="translate(39.615439,-15.656863)"
       style="opacity:1" />
  </g>
  <g
     inkscape:label="Layer 1"
     inkscape:groupmode="layer"
     id="layer1"
     style="display:inline">
    <g
       id="g497"
       transform="translate(40.80158,-22.724981)">
      <rect
         style="fill:none;stroke:#800080;stroke-width:0.264583;-inkscape-stroke:none;stop-color:#000000"
         id="rect111"
         width="19.049999"
         height="19.049999"
         x="58.664841"
         y="78.197639"
         rx="0"
         ry="0" />
      <rect
         style="fill:none;stroke:#800080;stroke-width:0.264583;-inkscape-stroke:none;stop-color:#000000"
         id="rect344"
         width="19.049999"
         height="19.049999"
         x="58.664841"
         y="59.147633"
         rx="0"
         ry="0" />
      <rect
         style="fill:none;stroke:#800080;stroke-width:0.264583;-inkscape-stroke:none;stop-color:#000000"
         id="rect423"
         width="19.049999"
         height="19.049999"
         x="58.664841"
         y="97.247643"
         rx="0"
         ry="0" />
      <rect
         style="fill:none;stroke:#000000;stroke-width:0.264583;-inkscape-stroke:none;stop-color:#000000"
         id="rect430"
         width="18"
         height="18"
         x="59.189842"
         y="59.67263"
         rx="2"
         ry="2" />
      <rect
         style="fill:none;stroke:#000000;stroke-width:0.264583;-inkscape-stroke:none;stop-color:#000000"
         id="rect487"
         width="18"
         height="18"
         x="59.189842"
         y="97.772644"
         rx="2"
         ry="2" />
      <rect
         style="fill:none;stroke:#000000;stroke-width:0.264583;-inkscape-stroke:none;stop-color:#000000"
         id="rect489"
         width="18"
         height="18"
         x="59.189842"
         y="78.722641"
         rx="2"
         ry="2" />
    </g>
    <use
       x="0"
       y="0"
       xlink:href="#g497"
       id="use25065"
       transform="translate(-19.050003,9.5250053)" />
    <use
       x="0"
       y="0"
       xlink:href="#use25065"
       id="use25067"
       transform="translate(38.100006,-4.7625026)" />
    <g
       id="g25083"
       transform="translate(78.901579,-27.481155)">
      <rect
         style="fill:none;stroke:#800080;stroke-width:0.264583;-inkscape-stroke:none;stop-color:#000000"
         id="rect25071"
         width="19.049999"
         height="19.049999"
         x="58.664841"
         y="78.197639"
         rx="0"
         ry="0" />
      <rect
         style="fill:none;stroke:#800080;stroke-width:0.264583;-inkscape-stroke:none;stop-color:#000000"
         id="rect25075"
         width="19.049999"
         height="19.049999"
         x="58.664841"
         y="97.247643"
         rx="0"
         ry="0" />
      <rect
         style="fill:none;stroke:#000000;stroke-width:0.264583;-inkscape-stroke:none;stop-color:#000000"
         id="rect25079"
         width="18"
         height="18"
         x="59.189842"
         y="97.772644"
         rx="2"
         ry="2" />
      <rect
         style="fill:none;stroke:#000000;stroke-width:0.264583;-inkscape-stroke:none;stop-color:#000000"
         id="rect25081"
         width="18"
         height="18"
         x="59.189842"
         y="78.722641"
         rx="2"
         ry="2" />
    </g>
    <g
       id="g315-9"
       transform="rotate(179.99964,131.44998,191.62228)"
       inkscape:transform-center-x="9.5248917"
       inkscape:transform-center-y="14.287546"
       style="display:inline">
      <rect
         style="fill:none;stroke:#800080;stroke-width:0.264583;-inkscape-stroke:none;stop-color:#000000"
         id="rect250-1"
         width="19.049995"
         height="28.574982"
         x="106.28289"
         y="265.853"
         rx="0"
         ry="0" />
      <rect
         style="fill:none;stroke:#000000;stroke-width:0.264583;-inkscape-stroke:none;stop-color:#000000"
         id="rect254-2"
         width="18"
         height="27.525024"
         x="106.80789"
         y="266.37799"
         rx="2"
         ry="2" />
    </g>
    <rect
       style="display:inline;fill:none;stroke:#d45500;stroke-width:0.2;-inkscape-stroke:none;stop-color:#000000"
       id="rect209-6"
       width="52.810001"
       height="20.780001"
       x="-103.79659"
       y="178.90392"
       inkscape:transform-center-x="10.429957"
       inkscape:transform-center-y="-26.389249"
       transform="rotate(-90.086706)" />
    <rect
       style="display:inline;fill:none;stroke:#d45500;stroke-width:0.2;-inkscape-stroke:none;stop-color:#000000"
       id="rect338-0"
       width="12"
       height="5"
       x="187.84982"
       y="106.61108"
       transform="rotate(0.00337783)"
       inkscape:transform-center-x="6.0001474"
       inkscape:transform-center-y="2.4996463" />
    <text
       xml:space="preserve"
       style="font-size:2.35608px;line-height:1.25;font-family:sans-serif;display:inline;stroke-width:0.441765"
       x="180.05482"
       y="77.947372"
       id="text501-6"><tspan
         sodipodi:role="line"
         id="tspan499-2"
         style="stroke-width:0.441765"
         x="180.05482"
         y="77.947372">STM32F401CCU6</tspan></text>
    <use
       x="0"
       y="0"
       xlink:href="#g25083"
       id="use25085"
       transform="translate(-76.200005,23.806177)" />
    <g
       id="g25158"
       transform="translate(59.851583,39.193915)"
       style="opacity:0.5">
      <rect
         style="fill:none;stroke:#800080;stroke-width:0.264583;-inkscape-stroke:none;stop-color:#000000"
         id="rect25148"
         width="19.049999"
         height="19.049999"
         x="58.664841"
         y="59.147633"
         rx="0"
         ry="0" />
      <rect
         style="fill:none;stroke:#000000;stroke-width:0.264583;-inkscape-stroke:none;stop-color:#000000"
         id="rect25152"
         width="18"
         height="18"
         x="59.189842"
         y="59.67263"
         rx="2"
         ry="2" />
    </g>
    <use
       x="0"
       y="0"
       xlink:href="#g315-9"
       inkscape:transform-center-x="9.5248917"
       inkscape:transform-center-y="14.287546"
       id="use331"
       transform="translate(19.050021,9.5250075)" />
    <use
       x="0"
       y="0"
       xlink:href="#g315-9"
       inkscape:transform-center-x="9.5248917"
       inkscape:transform-center-y="14.287546"
       id="use415"
       transform="translate(-95.250189,-4.7687451)" />
    <use
       x="0"
       y="0"
       xlink:href="#g25158"
       id="use609"
       transform="translate(38.100026,-19.049996)"
       style="opacity:1" />
  </g>
</svg>
